EESchema Schematic File Version 4
EELAYER 30 0
EELAYER END
$Descr A4 11693 8268
encoding utf-8
Sheet 1 1
Title "HAMSatTracker"
Date "17/11/2020"
Rev "1.0"
Comp ""
Comment1 ""
Comment2 ""
Comment3 ""
Comment4 ""
$EndDescr
$Comp
L Connector:Raspberry_Pi_2_3 J3
U 1 1 5FAD24C2
P 8025 2650
F 0 "J3" H 7375 3925 50  0000 C CNN
F 1 "Raspberry_Pi_2_3_Zero" H 8625 3900 39  0000 C CNN
F 2 "HAMSatTracker:PinHeader_2x20_P2.54mm_Vertical" H 8025 2650 50  0001 C CNN
F 3 "https://www.raspberrypi.org/documentation/hardware/raspberrypi/schematics/rpi_SCH_3bplus_1p0_reduced.pdf" H 8025 2650 50  0001 C CNN
F 4 "CONNFLY Elec" H 8025 2650 50  0001 C CNN "Manufacturer"
F 5 "DS1023-2*20SF11" H 8025 2650 50  0001 C CNN "Part N."
	1    8025 2650
	1    0    0    -1  
$EndComp
$Comp
L Driver_Motor:Pololu_Breakout_A4988 A1
U 1 1 5FAD65E1
P 1675 3375
F 0 "A1" H 1400 4200 50  0000 C CNN
F 1 "A4988" H 1475 4100 50  0000 C CNN
F 2 "HAMSatTracker:Pololu_Breakout-16_15.2x20.3mm" H 1950 2625 50  0001 L CNN
F 3 "https://www.pololu.com/product/2980/specs" H 1775 3075 50  0001 C CNN
F 4 "JILN" H 1675 3375 50  0001 C CNN "Manufacturer"
F 5 "22850108ANG1SYA01" H 1675 3375 50  0001 C CNN "Part N."
	1    1675 3375
	1    0    0    -1  
$EndComp
$Comp
L Conversores_DC_DC:TDK15-24S05W U1
U 1 1 5FADA01C
P 3900 1275
F 0 "U1" H 3900 1742 50  0000 C CNN
F 1 "TDK15-24S05W" H 3900 1651 50  0000 C CNN
F 2 "HAMSatTracker:Conversor_TDPOWER_TDK15-XXSXX_THT" H 3900 875 50  0001 C CNN
F 3 "https://datasheet.lcsc.com/szlcsc/2010171442_TDPOWER-TDK15-24S05W_C783520.pdf" H 3875 1275 50  0001 C CNN
F 4 "TDPOWER" H 3900 1275 50  0001 C CNN "Manufacturer"
F 5 "TDK15-24S05W" H 3900 1275 50  0001 C CNN "Part N."
	1    3900 1275
	1    0    0    -1  
$EndComp
Text Notes 7000 6850 0    126  ~ 0
WWW.CIRCUITEANDO.NET
Text Notes 7025 7075 0    47   ~ 0
Author: JGReyes
$Comp
L Device:CP_Small C3
U 1 1 5FAE73E7
P 3250 1275
F 0 "C3" H 3075 1325 50  0000 L CNN
F 1 "100uF/50v" H 2750 1225 50  0000 L CNN
F 2 "HAMSatTracker:CP_Radial_D8.0mm_P3.50mm" H 3250 1275 50  0001 C CNN
F 3 "https://datasheet.lcsc.com/szlcsc/1912111437_Rubycon-50WXA100MEFC8X9_C338225.pdf" H 3250 1275 50  0001 C CNN
F 4 "Rubycon" H 3250 1275 50  0001 C CNN "Manufacturer"
F 5 "50WXA100MEFC8X9" H 3250 1275 50  0001 C CNN "Part N."
	1    3250 1275
	1    0    0    -1  
$EndComp
$Comp
L Device:CP_Small C4
U 1 1 5FAEDB31
P 1975 2550
F 0 "C4" V 2075 2500 50  0000 L CNN
F 1 "100uF/50v" V 2075 2050 50  0000 L CNN
F 2 "HAMSatTracker:CP_Radial_D8.0mm_P3.50mm" H 1975 2550 50  0001 C CNN
F 3 "https://datasheet.lcsc.com/szlcsc/1912111437_Rubycon-50WXA100MEFC8X9_C338225.pdf" H 1975 2550 50  0001 C CNN
F 4 "Rubycon" H 1975 2550 50  0001 C CNN "Manufacturer"
F 5 "50WXA100MEFC8X9" H 1975 2550 50  0001 C CNN "Part N."
	1    1975 2550
	0    -1   -1   0   
$EndComp
$Comp
L Diodos_TVS:SMBJ7.0A D2
U 1 1 5FAEDE97
P 5600 1325
F 0 "D2" V 5700 1150 50  0000 C CNN
F 1 "SMBJ7.0A" V 5600 1025 50  0000 C CNN
F 2 "HAMSatTracker:D_SMB_Handsoldering" H 5600 1545 50  0001 C CNN
F 3 "https://datasheet.lcsc.com/szlcsc/1809192036_Diodes-Incorporated-SMBJ7-0A-13-F_C135094.pdf" H 5600 1545 50  0001 C CNN
F 4 " Diodes Incorporated" V 5600 1325 50  0001 C CNN "Manufacturer"
F 5 "SMBJ7.0A-13-F" V 5600 1325 50  0001 C CNN "Part N."
	1    5600 1325
	0    -1   -1   0   
$EndComp
$Comp
L Device:CP_Small C1
U 1 1 5FAF37CA
P 4500 1250
F 0 "C1" H 4588 1296 50  0000 L CNN
F 1 "1uF/10v" H 4588 1205 50  0000 L CNN
F 2 "HAMSatTracker:CP_Radial_D5.0mm_P2.00mm" H 4500 1250 50  0001 C CNN
F 3 "https://datasheet.lcsc.com/szlcsc/1912111437_Rubycon-50YXJ1MT15X11_C330941.pdf" H 4500 1250 50  0001 C CNN
F 4 "Rubycon" H 4500 1250 50  0001 C CNN "Manufacturer"
F 5 "50YXJ1MT15X11" H 4500 1250 50  0001 C CNN "Part N."
	1    4500 1250
	1    0    0    -1  
$EndComp
$Comp
L Device:CP_Small C2
U 1 1 5FAF463B
P 5000 1250
F 0 "C2" H 5088 1296 50  0000 L CNN
F 1 "220uF/10v" H 5088 1205 50  0000 L CNN
F 2 "HAMSatTracker:CP_Radial_D6.3mm_P2.50mm" H 5000 1250 50  0001 C CNN
F 3 "https://datasheet.lcsc.com/szlcsc/1809050031_Rubycon-10YXF220MEFC6-3X11_C88756.pdf" H 5000 1250 50  0001 C CNN
F 4 "Rubycon" H 5000 1250 50  0001 C CNN "Manufacturer"
F 5 "10YXF220MEFC6.3X11" H 5000 1250 50  0001 C CNN "Part N."
	1    5000 1250
	1    0    0    -1  
$EndComp
$Comp
L Device:Fuse_Small F1
U 1 1 5FAF822F
P 3100 1075
F 0 "F1" H 3100 1260 50  0000 C CNN
F 1 "4A/FF" H 3100 1169 50  0000 C CNN
F 2 "HAMSatTracker:Fuse_1206_3216Metric_Pad1.42x1.75mm_HandSolder" H 3100 1075 50  0001 C CNN
F 3 "https://datasheet.lcsc.com/szlcsc/1810112124_Littelfuse-0437004-WR_C99540.pdf" H 3100 1075 50  0001 C CNN
F 4 "Littelfuse" H 3100 1075 50  0001 C CNN "Manufacturer"
F 5 "0437004.WR" H 3100 1075 50  0001 C CNN "Part N."
	1    3100 1075
	1    0    0    -1  
$EndComp
$Comp
L Device:Fuse_Small F2
U 1 1 5FAFD5A3
P 1075 2300
F 0 "F2" H 1075 2485 50  0000 C CNN
F 1 "10A/FF" H 1075 2394 50  0000 C CNN
F 2 "HAMSatTracker:Fuse_1206_3216Metric_Pad1.42x1.75mm_HandSolder" H 1075 2300 50  0001 C CNN
F 3 "https://datasheet.lcsc.com/szlcsc/1810112218_Littelfuse-0501010-WR1_C207003.pdf" H 1075 2300 50  0001 C CNN
F 4 "Littelfuse" H 1075 2300 50  0001 C CNN "Manufacturer"
F 5 "0501010.WR1" H 1075 2300 50  0001 C CNN "Part N."
	1    1075 2300
	1    0    0    -1  
$EndComp
$Comp
L Device:D_Zener_ALT D1
U 1 1 5FAFF8D7
P 1975 1125
F 0 "D1" V 1929 1205 50  0000 L CNN
F 1 "12V" V 2020 1205 50  0000 L CNN
F 2 "HAMSatTracker:D_MiniMELF_Handsoldering" H 1975 1125 50  0001 C CNN
F 3 "https://datasheet.lcsc.com/szlcsc/2004221204_Vishay-Intertech-TLZ12B-GS08_C506583.pdf" H 1975 1125 50  0001 C CNN
F 4 "Vishay Intertech" V 1975 1125 50  0001 C CNN "Manufacturer"
F 5 "TLZ12B-GS08" V 1975 1125 50  0001 C CNN "Part N."
	1    1975 1125
	0    1    1    0   
$EndComp
$Comp
L Device:R R1
U 1 1 5FB01D22
P 1675 1475
F 0 "R1" H 1605 1429 50  0000 R CNN
F 1 "10k" H 1605 1520 50  0000 R CNN
F 2 "HAMSatTracker:R_1206_3216Metric_Pad1.42x1.75mm_HandSolder" V 1605 1475 50  0001 C CNN
F 3 "~" H 1675 1475 50  0001 C CNN
F 4 " UNI-ROYAL(Uniroyal Elec)" H 1675 1475 50  0001 C CNN "Manufacturer"
F 5 "1206W4F1002T5E" H 1675 1475 50  0001 C CNN "Part N."
	1    1675 1475
	-1   0    0    1   
$EndComp
$Comp
L Transistor_FET:SUD50P06-15 Q1
U 1 1 5FB0645A
P 1675 1075
F 0 "Q1" V 2017 1075 50  0000 C CNN
F 1 "SUD50P06-15" V 1926 1075 50  0000 C CNN
F 2 "HAMSatTracker:TO-252-2" H 1870 1000 50  0001 L CIN
F 3 "https://datasheet.lcsc.com/szlcsc/1811022129_Vishay-Intertech-SUD50P06-15-GE3_C141584.pdf" H 1675 1075 50  0001 C CNN
F 4 "Vishay Intertech" V 1675 1075 50  0001 C CNN "Manufacturer"
F 5 "SUD50P06-15-GE3" V 1675 1075 50  0001 C CNN "Part N."
	1    1675 1075
	0    -1   -1   0   
$EndComp
$Comp
L Connector_Generic:Conn_01x02 J1
U 1 1 5FB087ED
P 925 1075
F 0 "J1" H 1025 1025 50  0000 L CNN
F 1 "XT60PW-M" H 700 875 50  0000 L CNN
F 2 "HAMSatTracker:AMASS_XT60PW-M_1x02_P7.20mm" H 925 1075 50  0001 C CNN
F 3 "https://www.tme.eu/Document/9b8d0c5eb7094295f3d3112c214d3ade/XT60PW%20SPEC.pdf" H 925 1075 50  0001 C CNN
F 4 "Changzhou Amass Elec" V 925 1075 50  0001 C CNN "Manufacturer"
F 5 "XT60PW-M" V 925 1075 50  0001 C CNN "Part N."
	1    925  1075
	-1   0    0    1   
$EndComp
$Comp
L Connector:Screw_Terminal_01x07 J4
U 1 1 5FB280A6
P 725 3575
F 0 "J4" H 725 3125 50  0000 C CNN
F 1 "WJ15EDGVC-3.81-7P" V 850 3550 50  0000 C CNN
F 2 "HAMSatTracker:PhoenixContact_MCV_1,5_7-G-3.81_1x07_P3.81mm_Vertical" H 725 3575 50  0001 C CNN
F 3 "https://datasheet.lcsc.com/szlcsc/1912251638_Ningbo-Kangnex-Elec-WJ15EDGVC-3-81-7P_C31929.pdf" H 725 3575 50  0001 C CNN
F 4 "Ningbo Kangnex Elec" H 725 3575 50  0001 C CNN "Manufacturer"
F 5 "WJ15EDGVC-3.81-7P and WJ15EDGKA-3.81-7P" H 725 3575 50  0001 C CNN "Part N."
	1    725  3575
	-1   0    0    1   
$EndComp
$Comp
L Connector:Screw_Terminal_01x02 J8
U 1 1 5FB2C7F9
P 875 5100
F 0 "J8" H 793 4775 50  0000 C CNN
F 1 "WJ15EDGVC-3.81-2P" H 793 4866 50  0000 C CNN
F 2 "HAMSatTracker:PhoenixContact_MCV_1,5_2-G-3.81_1x02_P3.81mm_Vertical" H 875 5100 50  0001 C CNN
F 3 "https://datasheet.lcsc.com/szlcsc/1912251633_Ningbo-Kangnex-Elec-WJ15EDGVC-3-81-2P_C8396.pdf" H 875 5100 50  0001 C CNN
F 4 "Ningbo Kangnex Elec" H 875 5100 50  0001 C CNN "Manufacturer"
F 5 "WJ15EDGVC-3.81-2P and WJ15EDGKA-3.81-2P" H 875 5100 50  0001 C CNN "Part N."
	1    875  5100
	-1   0    0    1   
$EndComp
$Comp
L Connector:Screw_Terminal_01x02 J2
U 1 1 5FB2D028
P 925 1625
F 0 "J2" H 1050 1600 50  0000 C CNN
F 1 "XY2500V-B-5.00-2P" H 843 1391 50  0000 C CNN
F 2 "HAMSatTracker:PhoenixContact_MSTBVA_2,5_2-G_1x02_P5.00mm_Vertical" H 925 1625 50  0001 C CNN
F 3 "https://datasheet.lcsc.com/szlcsc/2004291906_Ningbo-Xinlaiya-Elec-XY2500V-B-5-00-2P_C505779.pdf" H 925 1625 50  0001 C CNN
F 4 "Ningbo Xinlaiya Elec." H 925 1625 50  0001 C CNN "Manufacturer"
F 5 "XY2500V-B-5.00-2P and XY2500F-AV-5.0-2P" H 925 1625 50  0001 C CNN "Part N."
	1    925  1625
	-1   0    0    1   
$EndComp
$Comp
L power:+BATT #PWR01
U 1 1 5FB89A04
P 2100 975
F 0 "#PWR01" H 2100 825 50  0001 C CNN
F 1 "+BATT" H 2115 1148 50  0000 C CNN
F 2 "" H 2100 975 50  0001 C CNN
F 3 "" H 2100 975 50  0001 C CNN
	1    2100 975 
	1    0    0    -1  
$EndComp
$Comp
L power:-BATT #PWR09
U 1 1 5FB8A2D4
P 1275 1625
F 0 "#PWR09" H 1275 1475 50  0001 C CNN
F 1 "-BATT" H 1290 1798 50  0000 C CNN
F 2 "" H 1275 1625 50  0001 C CNN
F 3 "" H 1275 1625 50  0001 C CNN
	1    1275 1625
	-1   0    0    1   
$EndComp
$Comp
L power:GND #PWR08
U 1 1 5FB8A9E0
P 5600 1525
F 0 "#PWR08" H 5600 1275 50  0001 C CNN
F 1 "GND" H 5605 1352 50  0000 C CNN
F 2 "" H 5600 1525 50  0001 C CNN
F 3 "" H 5600 1525 50  0001 C CNN
	1    5600 1525
	1    0    0    -1  
$EndComp
$Comp
L power:+5V #PWR02
U 1 1 5FB8B16D
P 5600 1000
F 0 "#PWR02" H 5600 850 50  0001 C CNN
F 1 "+5V" H 5615 1173 50  0000 C CNN
F 2 "" H 5600 1000 50  0001 C CNN
F 3 "" H 5600 1000 50  0001 C CNN
	1    5600 1000
	1    0    0    -1  
$EndComp
Wire Wire Line
	1125 1525 1475 1525
Connection ~ 1475 975 
$Comp
L power:-BATT #PWR03
U 1 1 5FB94142
P 1250 1075
F 0 "#PWR03" H 1250 925 50  0001 C CNN
F 1 "-BATT" H 1265 1248 50  0000 C CNN
F 2 "" H 1250 1075 50  0001 C CNN
F 3 "" H 1250 1075 50  0001 C CNN
	1    1250 1075
	-1   0    0    1   
$EndComp
Wire Wire Line
	1475 975  1475 1525
Wire Wire Line
	1125 1075 1250 1075
Wire Wire Line
	1125 1625 1275 1625
Wire Wire Line
	1675 1625 1275 1625
Connection ~ 1275 1625
Wire Wire Line
	1675 1275 1675 1325
Wire Wire Line
	1975 975  1875 975 
Wire Wire Line
	1975 1275 1675 1275
Connection ~ 1675 1275
Wire Wire Line
	2100 975  1975 975 
Connection ~ 1975 975 
Wire Notes Line
	500  525  500  1850
Text Notes 575  650  0    50   ~ 0
Power input / Reverse polarity protection
Text Notes 2400 650  0    50   ~ 0
9-36v to 5v(3A) DC/DC Power Module
$Comp
L power:-BATT #PWR07
U 1 1 5FBB2911
P 3100 1475
F 0 "#PWR07" H 3100 1325 50  0001 C CNN
F 1 "-BATT" H 3115 1648 50  0000 C CNN
F 2 "" H 3100 1475 50  0001 C CNN
F 3 "" H 3100 1475 50  0001 C CNN
	1    3100 1475
	-1   0    0    1   
$EndComp
Wire Wire Line
	3400 1475 3250 1475
NoConn ~ 3400 1275
Wire Wire Line
	2850 1075 3000 1075
Wire Wire Line
	3200 1075 3250 1075
Wire Wire Line
	3250 1175 3250 1075
Connection ~ 3250 1075
Wire Wire Line
	3250 1075 3400 1075
Wire Wire Line
	3250 1375 3250 1475
Connection ~ 3250 1475
Wire Wire Line
	3250 1475 3100 1475
Wire Wire Line
	4400 1075 4500 1075
Wire Wire Line
	4400 1475 4500 1475
Wire Wire Line
	4500 1150 4500 1075
Connection ~ 4500 1075
Wire Wire Line
	4500 1075 5000 1075
Wire Wire Line
	4500 1350 4500 1475
Connection ~ 4500 1475
Wire Wire Line
	4500 1475 5000 1475
Wire Wire Line
	5000 1150 5000 1075
Connection ~ 5000 1075
Wire Wire Line
	5000 1075 5600 1075
Wire Wire Line
	5000 1350 5000 1475
Connection ~ 5000 1475
Wire Wire Line
	5000 1475 5600 1475
Wire Wire Line
	5600 1000 5600 1075
Connection ~ 5600 1075
Wire Wire Line
	5600 1525 5600 1475
Connection ~ 5600 1475
Wire Notes Line
	2350 1850 2350 525 
$Comp
L power:GND #PWR018
U 1 1 5FC31FB0
P 1675 4275
F 0 "#PWR018" H 1675 4025 50  0001 C CNN
F 1 "GND" H 1680 4102 50  0000 C CNN
F 2 "" H 1675 4275 50  0001 C CNN
F 3 "" H 1675 4275 50  0001 C CNN
	1    1675 4275
	1    0    0    -1  
$EndComp
$Comp
L power:+5V #PWR014
U 1 1 5FC33AD4
P 1675 2575
F 0 "#PWR014" H 1675 2425 50  0001 C CNN
F 1 "+5V" H 1690 2748 50  0000 C CNN
F 2 "" H 1675 2575 50  0001 C CNN
F 3 "" H 1675 2575 50  0001 C CNN
	1    1675 2575
	1    0    0    -1  
$EndComp
$Comp
L power:-BATT #PWR019
U 1 1 5FC371AF
P 1875 4275
F 0 "#PWR019" H 1875 4125 50  0001 C CNN
F 1 "-BATT" H 1825 4450 50  0000 C CNN
F 2 "" H 1875 4275 50  0001 C CNN
F 3 "" H 1875 4275 50  0001 C CNN
	1    1875 4275
	-1   0    0    1   
$EndComp
$Comp
L power:+BATT #PWR010
U 1 1 5FC3B653
P 750 2300
F 0 "#PWR010" H 750 2150 50  0001 C CNN
F 1 "+BATT" H 765 2473 50  0000 C CNN
F 2 "" H 750 2300 50  0001 C CNN
F 3 "" H 750 2300 50  0001 C CNN
	1    750  2300
	1    0    0    -1  
$EndComp
Wire Wire Line
	925  3275 1275 3275
Wire Wire Line
	925  3375 1275 3375
Wire Wire Line
	925  3475 1275 3475
Wire Wire Line
	2175 3375 2400 3375
Wire Wire Line
	2175 3475 2400 3475
Wire Wire Line
	2175 3575 2400 3575
Text Label 2400 3375 2    39   ~ 0
1A_M1
Text Label 2400 3475 2    39   ~ 0
2A_M1
Text Label 2400 3575 2    39   ~ 0
2B_M1
Wire Wire Line
	925  3575 1150 3575
Text Label 1150 3575 2    39   ~ 0
1B_M1
Wire Wire Line
	925  3675 1150 3675
Wire Wire Line
	925  3775 1150 3775
Wire Wire Line
	925  3875 1150 3875
Text Label 1150 3675 2    39   ~ 0
1A_M1
Text Label 1150 3775 2    39   ~ 0
2A_M1
Text Label 1150 3875 2    39   ~ 0
2B_M1
NoConn ~ 1275 2975
Text Label 2400 3275 2    39   ~ 0
1B_M1
Wire Wire Line
	2175 3275 2400 3275
Wire Wire Line
	1275 3075 975  3075
Text Label 975  3075 0    39   ~ 0
SLEEP
Wire Wire Line
	1275 3675 1200 3675
Wire Wire Line
	1200 3675 1200 4075
Wire Wire Line
	1275 3775 1225 3775
Wire Wire Line
	1225 3775 1225 4175
Wire Wire Line
	1275 3875 1275 4275
Text Label 1025 4075 0    39   ~ 0
MS1
Text Label 1025 4175 0    39   ~ 0
MS2
Text Label 1025 4275 0    39   ~ 0
MS3
Wire Wire Line
	1200 4075 1025 4075
Wire Wire Line
	1225 4175 1025 4175
Wire Wire Line
	1275 4275 1025 4275
Wire Wire Line
	1675 4175 1675 4275
Wire Wire Line
	1875 4175 1875 4275
Wire Wire Line
	1675 2675 1675 2575
$Comp
L Driver_Motor:Pololu_Breakout_A4988 A2
U 1 1 5FCCEC4B
P 3600 3375
F 0 "A2" H 3325 4200 50  0000 C CNN
F 1 "A4988" H 3400 4100 50  0000 C CNN
F 2 "HAMSatTracker:Pololu_Breakout-16_15.2x20.3mm" H 3875 2625 50  0001 L CNN
F 3 "https://www.pololu.com/product/2980/specs" H 3700 3075 50  0001 C CNN
	1    3600 3375
	1    0    0    -1  
$EndComp
$Comp
L Connector:Screw_Terminal_01x07 J5
U 1 1 5FCCEED7
P 2650 3575
F 0 "J5" H 2650 3125 50  0000 C CNN
F 1 "WJ15EDGVC-3.81-7P" V 2775 3550 50  0000 C CNN
F 2 "HAMSatTracker:PhoenixContact_MCV_1,5_7-G-3.81_1x07_P3.81mm_Vertical" H 2650 3575 50  0001 C CNN
F 3 "https://datasheet.lcsc.com/szlcsc/1912251638_Ningbo-Kangnex-Elec-WJ15EDGVC-3-81-7P_C31929.pdf" H 2650 3575 50  0001 C CNN
F 4 "Ningbo Kangnex Elec" H 2650 3575 50  0001 C CNN "Manufacturer"
F 5 "WJ15EDGVC-3.81-7P and WJ15EDGKA-3.81-7P" H 2650 3575 50  0001 C CNN "Part N."
	1    2650 3575
	-1   0    0    1   
$EndComp
$Comp
L power:GND #PWR020
U 1 1 5FCCEEE1
P 3600 4275
F 0 "#PWR020" H 3600 4025 50  0001 C CNN
F 1 "GND" H 3605 4102 50  0000 C CNN
F 2 "" H 3600 4275 50  0001 C CNN
F 3 "" H 3600 4275 50  0001 C CNN
	1    3600 4275
	1    0    0    -1  
$EndComp
$Comp
L power:+5V #PWR015
U 1 1 5FCCEEEB
P 3600 2575
F 0 "#PWR015" H 3600 2425 50  0001 C CNN
F 1 "+5V" H 3615 2748 50  0000 C CNN
F 2 "" H 3600 2575 50  0001 C CNN
F 3 "" H 3600 2575 50  0001 C CNN
	1    3600 2575
	1    0    0    -1  
$EndComp
$Comp
L power:-BATT #PWR021
U 1 1 5FCCEEF5
P 3800 4275
F 0 "#PWR021" H 3800 4125 50  0001 C CNN
F 1 "-BATT" H 3750 4450 50  0000 C CNN
F 2 "" H 3800 4275 50  0001 C CNN
F 3 "" H 3800 4275 50  0001 C CNN
	1    3800 4275
	-1   0    0    1   
$EndComp
Wire Wire Line
	2850 3275 3200 3275
Wire Wire Line
	2850 3375 3200 3375
Wire Wire Line
	2850 3475 3200 3475
Wire Wire Line
	4100 3375 4325 3375
Wire Wire Line
	4100 3475 4325 3475
Wire Wire Line
	4100 3575 4325 3575
Text Label 4325 3375 2    39   ~ 0
1A_M2
Text Label 4325 3475 2    39   ~ 0
2A_M2
Text Label 4325 3575 2    39   ~ 0
2B_M2
Wire Wire Line
	2850 3575 3075 3575
Text Label 3075 3575 2    39   ~ 0
1B_M2
Wire Wire Line
	2850 3675 3075 3675
Wire Wire Line
	2850 3775 3075 3775
Wire Wire Line
	2850 3875 3075 3875
Text Label 3075 3675 2    39   ~ 0
1A_M2
Text Label 3075 3775 2    39   ~ 0
2A_M2
Text Label 3075 3875 2    39   ~ 0
2B_M2
NoConn ~ 3200 2975
Text Label 4325 3275 2    39   ~ 0
1B_M2
Wire Wire Line
	4100 3275 4325 3275
Wire Wire Line
	3200 3075 2900 3075
Text Label 2900 3075 0    39   ~ 0
SLEEP
Wire Wire Line
	3200 3675 3125 3675
Wire Wire Line
	3125 3675 3125 4075
Wire Wire Line
	3200 3775 3150 3775
Wire Wire Line
	3150 3775 3150 4175
Wire Wire Line
	3200 3875 3200 4275
Text Label 2950 4075 0    39   ~ 0
MS1
Text Label 2950 4175 0    39   ~ 0
MS2
Text Label 2950 4275 0    39   ~ 0
MS3
Wire Wire Line
	3125 4075 2950 4075
Wire Wire Line
	3150 4175 2950 4175
Wire Wire Line
	3200 4275 2950 4275
Wire Wire Line
	3600 4175 3600 4275
Wire Wire Line
	3800 4175 3800 4275
Wire Wire Line
	3600 2675 3600 2575
$Comp
L Driver_Motor:Pololu_Breakout_A4988 A3
U 1 1 5FCE21FA
P 5525 3375
F 0 "A3" H 5250 4200 50  0000 C CNN
F 1 "A4988" H 5325 4100 50  0000 C CNN
F 2 "HAMSatTracker:Pololu_Breakout-16_15.2x20.3mm" H 5800 2625 50  0001 L CNN
F 3 "https://www.pololu.com/product/2980/specs" H 5625 3075 50  0001 C CNN
	1    5525 3375
	1    0    0    -1  
$EndComp
$Comp
L Connector:Screw_Terminal_01x07 J6
U 1 1 5FCE26A8
P 4575 3575
F 0 "J6" H 4575 3125 50  0000 C CNN
F 1 "WJ15EDGVC-3.81-7P" V 4700 3550 50  0000 C CNN
F 2 "HAMSatTracker:PhoenixContact_MCV_1,5_7-G-3.81_1x07_P3.81mm_Vertical" H 4575 3575 50  0001 C CNN
F 3 "https://datasheet.lcsc.com/szlcsc/1912251638_Ningbo-Kangnex-Elec-WJ15EDGVC-3-81-7P_C31929.pdf" H 4575 3575 50  0001 C CNN
F 4 "Ningbo Kangnex Elec" H 4575 3575 50  0001 C CNN "Manufacturer"
F 5 "WJ15EDGVC-3.81-7P and WJ15EDGKA-3.81-7P" H 4575 3575 50  0001 C CNN "Part N."
	1    4575 3575
	-1   0    0    1   
$EndComp
$Comp
L power:GND #PWR022
U 1 1 5FCE26B2
P 5525 4275
F 0 "#PWR022" H 5525 4025 50  0001 C CNN
F 1 "GND" H 5530 4102 50  0000 C CNN
F 2 "" H 5525 4275 50  0001 C CNN
F 3 "" H 5525 4275 50  0001 C CNN
	1    5525 4275
	1    0    0    -1  
$EndComp
$Comp
L power:+5V #PWR016
U 1 1 5FCE26BC
P 5525 2575
F 0 "#PWR016" H 5525 2425 50  0001 C CNN
F 1 "+5V" H 5540 2748 50  0000 C CNN
F 2 "" H 5525 2575 50  0001 C CNN
F 3 "" H 5525 2575 50  0001 C CNN
	1    5525 2575
	1    0    0    -1  
$EndComp
$Comp
L power:-BATT #PWR023
U 1 1 5FCE26C6
P 5725 4275
F 0 "#PWR023" H 5725 4125 50  0001 C CNN
F 1 "-BATT" H 5675 4450 50  0000 C CNN
F 2 "" H 5725 4275 50  0001 C CNN
F 3 "" H 5725 4275 50  0001 C CNN
	1    5725 4275
	-1   0    0    1   
$EndComp
Wire Wire Line
	4775 3275 5125 3275
Wire Wire Line
	4775 3375 5125 3375
Wire Wire Line
	4775 3475 5125 3475
Wire Wire Line
	6025 3375 6250 3375
Wire Wire Line
	6025 3475 6250 3475
Wire Wire Line
	6025 3575 6250 3575
Text Label 6250 3375 2    39   ~ 0
1A_M3
Text Label 6250 3475 2    39   ~ 0
2A_M3
Text Label 6250 3575 2    39   ~ 0
2B_M3
Wire Wire Line
	4775 3575 5000 3575
Text Label 5000 3575 2    39   ~ 0
1B_M3
Wire Wire Line
	4775 3675 5000 3675
Wire Wire Line
	4775 3775 5000 3775
Wire Wire Line
	4775 3875 5000 3875
Text Label 5000 3675 2    39   ~ 0
1A_M3
Text Label 5000 3775 2    39   ~ 0
2A_M3
Text Label 5000 3875 2    39   ~ 0
2B_M3
NoConn ~ 5125 2975
Text Label 6250 3275 2    39   ~ 0
1B_M3
Wire Wire Line
	6025 3275 6250 3275
Wire Wire Line
	5125 3075 4825 3075
Text Label 4825 3075 0    39   ~ 0
SLEEP
Wire Wire Line
	5125 3675 5050 3675
Wire Wire Line
	5050 3675 5050 4075
Wire Wire Line
	5125 3775 5075 3775
Wire Wire Line
	5075 3775 5075 4175
Wire Wire Line
	5125 3875 5125 4275
Text Label 4875 4075 0    39   ~ 0
MS1
Text Label 4875 4175 0    39   ~ 0
MS2
Text Label 4875 4275 0    39   ~ 0
MS3
Wire Wire Line
	5050 4075 4875 4075
Wire Wire Line
	5075 4175 4875 4175
Wire Wire Line
	5125 4275 4875 4275
Wire Wire Line
	5525 4175 5525 4275
Wire Wire Line
	5525 2675 5525 2575
Wire Wire Line
	750  2300 975  2300
Wire Wire Line
	1875 2675 1875 2550
Wire Wire Line
	1875 2550 1875 2300
Wire Wire Line
	1175 2300 1875 2300
Connection ~ 1875 2550
$Comp
L Device:CP_Small C5
U 1 1 5FD2B80E
P 3900 2550
F 0 "C5" V 4000 2500 50  0000 L CNN
F 1 "100uF/50v" V 4000 2050 50  0000 L CNN
F 2 "HAMSatTracker:CP_Radial_D8.0mm_P3.50mm" H 3900 2550 50  0001 C CNN
F 3 "https://datasheet.lcsc.com/szlcsc/1912111437_Rubycon-50WXA100MEFC8X9_C338225.pdf" H 3900 2550 50  0001 C CNN
F 4 "Rubycon" H 3900 2550 50  0001 C CNN "Manufacturer"
F 5 "50WXA100MEFC8X9" H 3900 2550 50  0001 C CNN "Part N."
	1    3900 2550
	0    -1   -1   0   
$EndComp
$Comp
L Device:CP_Small C6
U 1 1 5FD2D8C0
P 5825 2550
F 0 "C6" V 5925 2500 50  0000 L CNN
F 1 "100uF/50v" V 5925 2050 50  0000 L CNN
F 2 "HAMSatTracker:CP_Radial_D8.0mm_P3.50mm" H 5825 2550 50  0001 C CNN
F 3 "https://datasheet.lcsc.com/szlcsc/1912111437_Rubycon-50WXA100MEFC8X9_C338225.pdf" H 5825 2550 50  0001 C CNN
F 4 "Rubycon" H 5825 2550 50  0001 C CNN "Manufacturer"
F 5 "50WXA100MEFC8X9" H 5825 2550 50  0001 C CNN "Part N."
	1    5825 2550
	0    -1   -1   0   
$EndComp
Wire Wire Line
	3800 2550 3800 2675
Wire Wire Line
	5725 2550 5725 2675
$Comp
L power:-BATT #PWR011
U 1 1 5FD38986
P 2175 2550
F 0 "#PWR011" H 2175 2400 50  0001 C CNN
F 1 "-BATT" H 2125 2725 50  0000 C CNN
F 2 "" H 2175 2550 50  0001 C CNN
F 3 "" H 2175 2550 50  0001 C CNN
	1    2175 2550
	-1   0    0    1   
$EndComp
$Comp
L power:-BATT #PWR012
U 1 1 5FD3B25F
P 4100 2550
F 0 "#PWR012" H 4100 2400 50  0001 C CNN
F 1 "-BATT" H 4050 2725 50  0000 C CNN
F 2 "" H 4100 2550 50  0001 C CNN
F 3 "" H 4100 2550 50  0001 C CNN
	1    4100 2550
	-1   0    0    1   
$EndComp
$Comp
L power:-BATT #PWR013
U 1 1 5FD420BE
P 6025 2550
F 0 "#PWR013" H 6025 2400 50  0001 C CNN
F 1 "-BATT" H 5975 2725 50  0000 C CNN
F 2 "" H 6025 2550 50  0001 C CNN
F 3 "" H 6025 2550 50  0001 C CNN
	1    6025 2550
	-1   0    0    1   
$EndComp
Wire Wire Line
	5925 2550 6025 2550
Wire Wire Line
	4000 2550 4100 2550
Wire Wire Line
	2075 2550 2175 2550
Wire Wire Line
	1875 2300 3800 2300
Wire Wire Line
	5725 2300 5725 2550
Connection ~ 1875 2300
Connection ~ 5725 2550
Wire Wire Line
	3800 2550 3800 2300
Connection ~ 3800 2550
Connection ~ 3800 2300
Wire Wire Line
	3800 2300 5725 2300
Wire Notes Line
	500  1900 6350 1900
Wire Notes Line
	6350 1900 6350 4525
Wire Notes Line
	6350 4525 500  4525
Wire Notes Line
	500  4525 500  1900
Text Notes 550  2025 0    50   ~ 0
Motors drivers
$Comp
L power:+5V #PWR05
U 1 1 5FDB6375
P 7825 1250
F 0 "#PWR05" H 7825 1100 50  0001 C CNN
F 1 "+5V" H 7840 1423 50  0000 C CNN
F 2 "" H 7825 1250 50  0001 C CNN
F 3 "" H 7825 1250 50  0001 C CNN
	1    7825 1250
	1    0    0    -1  
$EndComp
Wire Wire Line
	7825 1250 7825 1350
Wire Wire Line
	7925 1350 7925 1250
Wire Wire Line
	7925 1250 7825 1250
Connection ~ 7825 1250
$Comp
L Connector:Conn_01x02_Male J9
U 1 1 5FDCF62A
P 725 5425
F 0 "J9" H 875 5600 50  0000 R CNN
F 1 "Pin_Header" H 1000 5525 39  0000 R CNN
F 2 "HAMSatTracker:PinHeader_1x02_P2.54mm_Horizontal" H 725 5425 50  0001 C CNN
F 3 "~" H 725 5425 50  0001 C CNN
F 4 "Shuntian" H 725 5425 50  0001 C CNN "Manufacturer"
F 5 "KB3*8" H 725 5425 50  0001 C CNN "Part N."
	1    725  5425
	1    0    0    -1  
$EndComp
$Comp
L Connector:Conn_01x04_Male J7
U 1 1 5FE1DF4C
P 1775 5025
F 0 "J7" H 1883 5290 50  0000 C CNN
F 1 "Pin_Header" H 1875 5225 39  0000 C CNN
F 2 "HAMSatTracker:PinHeader_1x04_P2.54mm_Horizontal" H 1775 5025 50  0001 C CNN
F 3 "~" H 1775 5025 50  0001 C CNN
F 4 "BOOMELE(Boom Precision Elec)" H 1775 5025 50  0001 C CNN "Manufacturer"
F 5 "C86750" H 1775 5025 50  0001 C CNN "Part N."
	1    1775 5025
	1    0    0    -1  
$EndComp
$Comp
L power:GND #PWR017
U 1 1 5FE3DEB0
P 7975 4050
F 0 "#PWR017" H 7975 3800 50  0001 C CNN
F 1 "GND" H 7980 3877 50  0000 C CNN
F 2 "" H 7975 4050 50  0001 C CNN
F 3 "" H 7975 4050 50  0001 C CNN
	1    7975 4050
	1    0    0    -1  
$EndComp
Wire Wire Line
	7625 3950 7625 4050
Wire Wire Line
	7625 4050 7725 4050
Wire Wire Line
	8325 3950 8325 4050
Wire Wire Line
	8325 4050 8225 4050
Connection ~ 7975 4050
Wire Wire Line
	7725 3950 7725 4050
Connection ~ 7725 4050
Wire Wire Line
	7725 4050 7825 4050
Wire Wire Line
	7825 3950 7825 4050
Connection ~ 7825 4050
Wire Wire Line
	7825 4050 7925 4050
Wire Wire Line
	7925 3950 7925 4050
Connection ~ 7925 4050
Wire Wire Line
	7925 4050 7975 4050
Wire Wire Line
	8025 3950 8025 4050
Connection ~ 8025 4050
Wire Wire Line
	8025 4050 7975 4050
Wire Wire Line
	8125 3950 8125 4050
Connection ~ 8125 4050
Wire Wire Line
	8125 4050 8025 4050
Wire Wire Line
	8225 3950 8225 4050
Connection ~ 8225 4050
Wire Wire Line
	8225 4050 8125 4050
Wire Wire Line
	925  5525 1125 5525
NoConn ~ 8825 1750
NoConn ~ 8825 1850
NoConn ~ 8825 3050
NoConn ~ 8825 3150
$Comp
L power:GND #PWR028
U 1 1 5FEBF169
P 2050 5500
F 0 "#PWR028" H 2050 5250 50  0001 C CNN
F 1 "GND" V 2055 5372 50  0000 R CNN
F 2 "" H 2050 5500 50  0001 C CNN
F 3 "" H 2050 5500 50  0001 C CNN
	1    2050 5500
	0    -1   -1   0   
$EndComp
Wire Wire Line
	1975 5500 2050 5500
$Comp
L power:GND #PWR024
U 1 1 5FEF57B5
P 2025 4925
F 0 "#PWR024" H 2025 4675 50  0001 C CNN
F 1 "GND" V 2030 4797 50  0000 R CNN
F 2 "" H 2025 4925 50  0001 C CNN
F 3 "" H 2025 4925 50  0001 C CNN
	1    2025 4925
	0    -1   -1   0   
$EndComp
Wire Wire Line
	1975 4925 2025 4925
Wire Wire Line
	2300 5025 1975 5025
Wire Wire Line
	2300 5125 1975 5125
Wire Wire Line
	2300 5225 1975 5225
Text Label 4800 3275 0    39   ~ 0
EN_M3
Text Label 4800 3375 0    39   ~ 0
STEP_M3
Text Label 4800 3475 0    39   ~ 0
DIR_M3
Text Label 2875 3275 0    39   ~ 0
EN_M2
Text Label 2875 3375 0    39   ~ 0
STEP_M2
Text Label 2875 3475 0    39   ~ 0
DIR_M2
Text Label 950  3275 0    39   ~ 0
EN_M1
Text Label 950  3375 0    39   ~ 0
STEP_M1
Text Label 950  3475 0    39   ~ 0
DIR_M1
Text Label 9125 2350 2    39   ~ 0
EN_M1
Text Label 9125 2550 2    39   ~ 0
EN_M3
Text Label 6900 2050 0    39   ~ 0
STEP_M1
Text Label 6900 2150 0    39   ~ 0
STEP_M2
Text Label 6900 2250 0    39   ~ 0
STEP_M3
Text Label 6900 3150 0    39   ~ 0
DIR_M1
Text Label 6900 3250 0    39   ~ 0
DIR_M2
Text Label 6900 3350 0    39   ~ 0
DIR_M3
Text Label 6900 2850 0    39   ~ 0
MS1
Text Label 6900 2950 0    39   ~ 0
MS2
Text Label 6900 3050 0    39   ~ 0
MS3
Text Label 9125 2950 2    39   ~ 0
SLEEP
Text Label 9125 2450 2    39   ~ 0
EN_M2
Wire Wire Line
	7225 2050 6900 2050
Wire Wire Line
	7225 2150 6900 2150
Wire Wire Line
	7225 2250 6900 2250
Wire Wire Line
	7225 2850 6900 2850
Wire Wire Line
	7225 2950 6900 2950
Wire Wire Line
	7225 3050 6900 3050
Wire Wire Line
	8825 2550 9125 2550
Wire Wire Line
	8825 2850 9125 2850
Wire Wire Line
	8825 2950 9125 2950
Wire Wire Line
	7225 3150 6900 3150
Wire Wire Line
	7225 3250 6900 3250
Wire Wire Line
	7225 3350 6900 3350
Wire Notes Line
	6400 525  9550 525 
Text Notes 6450 650  0    50   ~ 0
Raspberry Pi Zero W
Wire Notes Line
	6400 4525 9550 4525
Wire Notes Line
	6400 525  6400 4525
Wire Notes Line
	9550 525  9550 4525
Wire Notes Line
	6350 525  6350 1850
Wire Notes Line
	2350 525  6350 525 
Wire Notes Line
	2350 1850 6350 1850
Wire Notes Line
	2300 1850 2300 525 
Wire Notes Line
	500  1850 2300 1850
Wire Notes Line
	500  525  2300 525 
Text Notes 550  4700 0    50   ~ 0
Extra connectors (Optional)
$Comp
L power:+5V #PWR025
U 1 1 60110FF7
P 1200 5000
F 0 "#PWR025" H 1200 4850 50  0001 C CNN
F 1 "+5V" V 1200 5125 50  0000 L CNN
F 2 "" H 1200 5000 50  0001 C CNN
F 3 "" H 1200 5000 50  0001 C CNN
	1    1200 5000
	0    1    1    0   
$EndComp
Wire Wire Line
	1075 5000 1200 5000
Wire Wire Line
	1075 5100 1200 5100
Wire Wire Line
	1975 6000 2050 6000
$Comp
L power:GND #PWR031
U 1 1 5FE7A141
P 2050 6000
F 0 "#PWR031" H 2050 5750 50  0001 C CNN
F 1 "GND" V 2055 5872 50  0000 R CNN
F 2 "" H 2050 6000 50  0001 C CNN
F 3 "" H 2050 6000 50  0001 C CNN
	1    2050 6000
	0    -1   -1   0   
$EndComp
$Comp
L Connector:Conn_01x03_Male J11
U 1 1 5FE18C2A
P 1775 6100
F 0 "J11" H 1900 6375 50  0000 R CNN
F 1 "Pin_Header" H 2050 6300 39  0000 R CNN
F 2 "HAMSatTracker:PinHeader_1x03_P2.54mm_Horizontal" H 1775 6100 50  0001 C CNN
F 3 "~" H 1775 6100 50  0001 C CNN
	1    1775 6100
	1    0    0    -1  
$EndComp
$Comp
L Connector:Conn_01x03_Male J10
U 1 1 5FE141A4
P 1775 5600
F 0 "J10" H 1883 5865 50  0000 C CNN
F 1 "Pin_Header" H 1875 5800 39  0000 C CNN
F 2 "HAMSatTracker:PinHeader_1x03_P2.54mm_Horizontal" H 1775 5600 50  0001 C CNN
F 3 "~" H 1775 5600 50  0001 C CNN
	1    1775 5600
	1    0    0    -1  
$EndComp
Wire Wire Line
	925  5425 1125 5425
$Comp
L power:GND #PWR027
U 1 1 601AC64B
P 1125 5425
F 0 "#PWR027" H 1125 5175 50  0001 C CNN
F 1 "GND" V 1130 5297 50  0000 R CNN
F 2 "" H 1125 5425 50  0001 C CNN
F 3 "" H 1125 5425 50  0001 C CNN
	1    1125 5425
	0    -1   -1   0   
$EndComp
Wire Wire Line
	8125 1250 8125 1350
Wire Wire Line
	8225 1350 8225 1250
$Comp
L power:+3.3V #PWR029
U 1 1 601C0387
P 1125 5525
F 0 "#PWR029" H 1125 5375 50  0001 C CNN
F 1 "+3.3V" V 1125 5650 50  0000 L CNN
F 2 "" H 1125 5525 50  0001 C CNN
F 3 "" H 1125 5525 50  0001 C CNN
	1    1125 5525
	0    1    1    0   
$EndComp
Wire Wire Line
	7225 2450 6900 2450
Wire Wire Line
	7225 2550 6900 2550
Wire Wire Line
	7225 2650 6900 2650
Text Label 6900 2450 0    39   ~ 0
MISO
Text Label 6900 2550 0    39   ~ 0
MOSI
Text Label 6900 2650 0    39   ~ 0
SCLK
Text Label 2300 5025 2    39   ~ 0
MISO
Text Label 2300 5125 2    39   ~ 0
MOSI
Text Label 2300 5225 2    39   ~ 0
SCLK
Wire Wire Line
	7225 1750 6900 1750
Wire Wire Line
	7225 1850 6900 1850
Text Label 6900 1750 0    39   ~ 0
TX
Text Label 6900 1850 0    39   ~ 0
RX
Text Label 2325 5600 2    39   ~ 0
TX
Text Label 2325 5700 2    39   ~ 0
RX
Wire Wire Line
	1975 5600 2325 5600
Wire Wire Line
	1975 5700 2325 5700
Wire Wire Line
	8825 2050 9125 2050
Wire Wire Line
	8825 2150 9125 2150
Text Label 9125 2050 2    39   ~ 0
SDA
Text Label 9125 2150 2    39   ~ 0
SCL
Text Label 2325 6100 2    39   ~ 0
SDA
Text Label 2325 6200 2    39   ~ 0
SCL
Wire Wire Line
	1975 6100 2325 6100
Wire Wire Line
	1975 6200 2325 6200
Wire Notes Line
	2450 4575 500  4575
$Comp
L power:GND #PWR026
U 1 1 60276752
P 1200 5100
F 0 "#PWR026" H 1200 4850 50  0001 C CNN
F 1 "GND" V 1205 4972 50  0000 R CNN
F 2 "" H 1200 5100 50  0001 C CNN
F 3 "" H 1200 5100 50  0001 C CNN
	1    1200 5100
	0    -1   -1   0   
$EndComp
Wire Wire Line
	8825 2350 9125 2350
Wire Wire Line
	8825 2450 9125 2450
Text Label 9275 2750 2    39   ~ 0
GPIO_7-ALERT
Text Label 9125 2850 2    39   ~ 0
GPIO_8
Wire Wire Line
	8825 3350 9125 3350
Wire Wire Line
	8825 3450 9125 3450
Text Label 9125 3350 2    39   ~ 0
GPIO_12
Text Label 9125 3450 2    39   ~ 0
GPIO_13
Wire Wire Line
	925  5800 1000 5800
$Comp
L power:GND #PWR030
U 1 1 602E5AF5
P 1000 5800
F 0 "#PWR030" H 1000 5550 50  0001 C CNN
F 1 "GND" V 1005 5672 50  0000 R CNN
F 2 "" H 1000 5800 50  0001 C CNN
F 3 "" H 1000 5800 50  0001 C CNN
	1    1000 5800
	0    -1   -1   0   
$EndComp
Wire Wire Line
	925  6000 1275 6000
Wire Wire Line
	925  6100 1275 6100
Wire Wire Line
	925  6200 1275 6200
Text Label 1275 6000 2    39   ~ 0
GPIO_8
Text Label 1275 6100 2    39   ~ 0
GPIO_12
Text Label 1275 6200 2    39   ~ 0
GPIO_13
Wire Notes Line
	500  6500 2450 6500
Wire Notes Line
	2450 4575 2450 6500
Wire Notes Line
	500  4575 500  6500
Wire Wire Line
	5725 4175 5725 4275
$Comp
L Analog_ADC:ADS1015IDGS U2
U 1 1 5FB7A643
P 4075 5775
F 0 "U2" H 3800 6225 50  0000 C CNN
F 1 "ADS1015IDGSR" H 4375 6225 39  0000 C CNN
F 2 "HAMSatTracker:TSSOP-10_3x3mm_P0.5mm_HandSolder" H 4075 5275 50  0001 C CNN
F 3 "https://datasheet.lcsc.com/szlcsc/1808311141_Texas-Instruments-ADS1015IDGSR_C193969.pdf" H 4025 4875 50  0001 C CNN
F 4 "Texas Instruments" H 4075 5775 50  0001 C CNN "Manufacturer"
F 5 "ADS1015IDGSR" H 4075 5775 50  0001 C CNN "Part N."
	1    4075 5775
	1    0    0    -1  
$EndComp
$Comp
L Device:C_Small C7
U 1 1 5FB897B7
P 4300 5025
F 0 "C7" V 4175 5025 50  0000 C CNN
F 1 "100nF" V 4175 5225 50  0000 C CNN
F 2 "HAMSatTracker:C_1206_3216Metric_Pad1.42x1.75mm_HandSolder" H 4300 5025 50  0001 C CNN
F 3 "~" H 4300 5025 50  0001 C CNN
F 4 "Samsung Electro-Mechanics" V 4300 5025 50  0001 C CNN "Manufacturer"
F 5 "CL31B104KBCNNNC" V 4300 5025 50  0001 C CNN "Part N."
	1    4300 5025
	0    1    1    0   
$EndComp
$Comp
L power:+3.3V #PWR032
U 1 1 5FB9FDF5
P 3200 5025
F 0 "#PWR032" H 3200 4875 50  0001 C CNN
F 1 "+3.3V" H 3215 5198 50  0000 C CNN
F 2 "" H 3200 5025 50  0001 C CNN
F 3 "" H 3200 5025 50  0001 C CNN
	1    3200 5025
	1    0    0    -1  
$EndComp
$Comp
L power:GND #PWR033
U 1 1 5FBACBAF
P 4575 5025
F 0 "#PWR033" H 4575 4775 50  0001 C CNN
F 1 "GND" V 4580 4897 50  0000 R CNN
F 2 "" H 4575 5025 50  0001 C CNN
F 3 "" H 4575 5025 50  0001 C CNN
	1    4575 5025
	0    -1   -1   0   
$EndComp
Wire Wire Line
	4400 5025 4575 5025
$Comp
L Device:R R2
U 1 1 5FC013EE
P 4975 5350
F 0 "R2" H 4905 5304 50  0000 R CNN
F 1 "10k" H 4905 5395 50  0000 R CNN
F 2 "HAMSatTracker:R_1206_3216Metric_Pad1.42x1.75mm_HandSolder" V 4905 5350 50  0001 C CNN
F 3 "~" H 4975 5350 50  0001 C CNN
F 4 " UNI-ROYAL(Uniroyal Elec)" H 4975 5350 50  0001 C CNN "Manufacturer"
F 5 "1206W4F1002T5E" H 4975 5350 50  0001 C CNN "Part N."
	1    4975 5350
	-1   0    0    1   
$EndComp
$Comp
L Device:R R3
U 1 1 5FC05402
P 5250 5350
F 0 "R3" H 5180 5304 50  0000 R CNN
F 1 "10k" H 5180 5395 50  0000 R CNN
F 2 "HAMSatTracker:R_1206_3216Metric_Pad1.42x1.75mm_HandSolder" V 5180 5350 50  0001 C CNN
F 3 "~" H 5250 5350 50  0001 C CNN
F 4 " UNI-ROYAL(Uniroyal Elec)" H 5250 5350 50  0001 C CNN "Manufacturer"
F 5 "1206W4F1002T5E" H 5250 5350 50  0001 C CNN "Part N."
	1    5250 5350
	-1   0    0    1   
$EndComp
$Comp
L Device:R R4
U 1 1 5FC0582A
P 5525 5350
F 0 "R4" H 5455 5304 50  0000 R CNN
F 1 "10k" H 5455 5395 50  0000 R CNN
F 2 "HAMSatTracker:R_1206_3216Metric_Pad1.42x1.75mm_HandSolder" V 5455 5350 50  0001 C CNN
F 3 "~" H 5525 5350 50  0001 C CNN
F 4 " UNI-ROYAL(Uniroyal Elec)" H 5525 5350 50  0001 C CNN "Manufacturer"
F 5 "1206W4F1002T5E" H 5525 5350 50  0001 C CNN "Part N."
	1    5525 5350
	-1   0    0    1   
$EndComp
Wire Wire Line
	4475 5575 4975 5575
Wire Wire Line
	4975 5575 4975 5500
Wire Wire Line
	5250 5500 5250 5775
Wire Wire Line
	5250 5775 4475 5775
Wire Wire Line
	4475 5875 5525 5875
Wire Wire Line
	5525 5875 5525 5500
$Comp
L Device:R R7
U 1 1 5FC445F5
P 5175 6100
F 0 "R7" V 5250 6225 50  0000 R CNN
F 1 "10k" V 5250 6100 50  0000 R CNN
F 2 "HAMSatTracker:R_1206_3216Metric_Pad1.42x1.75mm_HandSolder" V 5105 6100 50  0001 C CNN
F 3 "~" H 5175 6100 50  0001 C CNN
F 4 " UNI-ROYAL(Uniroyal Elec)" H 5175 6100 50  0001 C CNN "Manufacturer"
F 5 "1206W4F1002T5E" H 5175 6100 50  0001 C CNN "Part N."
	1    5175 6100
	0    -1   -1   0   
$EndComp
$Comp
L power:-BATT #PWR036
U 1 1 5FC4687B
P 5525 6225
F 0 "#PWR036" H 5525 6075 50  0001 C CNN
F 1 "-BATT" H 5525 6400 50  0000 C CNN
F 2 "" H 5525 6225 50  0001 C CNN
F 3 "" H 5525 6225 50  0001 C CNN
	1    5525 6225
	-1   0    0    1   
$EndComp
$Comp
L Device:Ferrite_Bead_Small FB1
U 1 1 5FC7B14C
P 3525 5025
F 0 "FB1" V 3400 4975 50  0000 L CNN
F 1 "CBW321609U152T" V 3650 4675 50  0000 L CNN
F 2 "HAMSatTracker:L_1206_3216Metric_Pad1.42x1.75mm_HandSolder" V 3455 5025 50  0001 C CNN
F 3 "https://datasheet.lcsc.com/szlcsc/1912111437_FH-Guangdong-Fenghua-Advanced-Tech-CBW321609U152T_C394497.pdf" H 3525 5025 50  0001 C CNN
F 4 "FH(Guangdong Fenghua Advanced Tech)" H 3525 5025 50  0001 C CNN "Manufacturer"
F 5 "CBW321609U152T" H 3525 5025 50  0001 C CNN "Part N."
	1    3525 5025
	0    1    1    0   
$EndComp
$Comp
L Device:Ferrite_Bead_Small FB2
U 1 1 5FC7DD39
P 4575 6275
F 0 "FB2" V 4450 6275 50  0000 C CNN
F 1 "CBW321609U152T" V 4700 6500 50  0000 C CNN
F 2 "HAMSatTracker:L_1206_3216Metric_Pad1.42x1.75mm_HandSolder" V 4505 6275 50  0001 C CNN
F 3 "https://datasheet.lcsc.com/szlcsc/1912111437_FH-Guangdong-Fenghua-Advanced-Tech-CBW321609U152T_C394497.pdf" H 4575 6275 50  0001 C CNN
F 4 "FH(Guangdong Fenghua Advanced Tech)" H 4575 6275 50  0001 C CNN "Manufacturer"
F 5 "CBW321609U152T" H 4575 6275 50  0001 C CNN "Part N."
	1    4575 6275
	0    1    1    0   
$EndComp
Wire Wire Line
	3625 5025 4075 5025
Connection ~ 4075 5025
Wire Wire Line
	4075 5025 4200 5025
Wire Wire Line
	4075 5025 4075 5200
Wire Wire Line
	5525 5200 5250 5200
Wire Wire Line
	5250 5200 4975 5200
Connection ~ 5250 5200
Wire Wire Line
	4975 5200 4075 5200
Connection ~ 4975 5200
Connection ~ 4075 5200
Wire Wire Line
	4075 5200 4075 5275
$Comp
L power:GND #PWR037
U 1 1 5FD6F3DB
P 4850 6275
F 0 "#PWR037" H 4850 6025 50  0001 C CNN
F 1 "GND" V 4855 6147 50  0000 R CNN
F 2 "" H 4850 6275 50  0001 C CNN
F 3 "" H 4850 6275 50  0001 C CNN
	1    4850 6275
	0    -1   -1   0   
$EndComp
Wire Wire Line
	4075 6275 4075 6175
Wire Wire Line
	3200 5025 3425 5025
Wire Wire Line
	4675 6275 4850 6275
Wire Wire Line
	5525 6100 5525 6225
Wire Wire Line
	4850 6100 4850 6275
Connection ~ 4850 6275
Wire Notes Line
	2500 4575 2500 6500
Wire Notes Line
	2500 6500 6350 6500
Wire Notes Line
	6350 6500 6350 4575
Wire Notes Line
	6350 4575 2500 4575
Text Notes 2550 4700 0    50   ~ 0
ADC (For battery voltage measure, Optional)
$Comp
L power:-BATT #PWR035
U 1 1 5FE45F80
P 2825 6050
F 0 "#PWR035" H 2825 5900 50  0001 C CNN
F 1 "-BATT" H 2840 6223 50  0000 C CNN
F 2 "" H 2825 6050 50  0001 C CNN
F 3 "" H 2825 6050 50  0001 C CNN
	1    2825 6050
	-1   0    0    1   
$EndComp
$Comp
L power:+BATT #PWR034
U 1 1 5FE4EB51
P 2825 5225
F 0 "#PWR034" H 2825 5075 50  0001 C CNN
F 1 "+BATT" H 2840 5398 50  0000 C CNN
F 2 "" H 2825 5225 50  0001 C CNN
F 3 "" H 2825 5225 50  0001 C CNN
	1    2825 5225
	1    0    0    -1  
$EndComp
$Comp
L Device:R R6
U 1 1 5FE56C8B
P 2825 5825
F 0 "R6" H 2755 5779 50  0000 R CNN
F 1 "10k" H 2755 5870 50  0000 R CNN
F 2 "HAMSatTracker:R_1206_3216Metric_Pad1.42x1.75mm_HandSolder" V 2755 5825 50  0001 C CNN
F 3 "~" H 2825 5825 50  0001 C CNN
F 4 " UNI-ROYAL(Uniroyal Elec)" H 2825 5825 50  0001 C CNN "Manufacturer"
F 5 "1206W4F1002T5E" H 2825 5825 50  0001 C CNN "Part N."
	1    2825 5825
	-1   0    0    1   
$EndComp
$Comp
L Device:R R5
U 1 1 5FE5762B
P 2825 5450
F 0 "R5" H 2755 5404 50  0000 R CNN
F 1 "100k" H 2755 5495 50  0000 R CNN
F 2 "HAMSatTracker:R_1206_3216Metric_Pad1.42x1.75mm_HandSolder" V 2755 5450 50  0001 C CNN
F 3 "~" H 2825 5450 50  0001 C CNN
F 4 " UNI-ROYAL(Uniroyal Elec)" H 2825 5450 50  0001 C CNN "Manufacturer"
F 5 "1206W4F1003T5E" H 2825 5450 50  0001 C CNN "Part N."
	1    2825 5450
	-1   0    0    1   
$EndComp
Wire Wire Line
	2825 5300 2825 5225
Wire Wire Line
	2825 5600 2825 5675
Wire Wire Line
	2825 5975 2825 6050
Wire Wire Line
	3675 5675 2825 5675
Connection ~ 2825 5675
Wire Wire Line
	8825 2750 9275 2750
Text Label 1375 5900 2    39   ~ 0
GPIO_7-ALERT
Wire Wire Line
	925  5900 1375 5900
$Comp
L Connector:Conn_01x07_Male J12
U 1 1 5FF66747
P 725 6100
F 0 "J12" H 833 6565 50  0000 C CNN
F 1 "Pin_Header" H 825 6500 39  0000 C CNN
F 2 "HAMSatTracker:PinHeader_1x07_P2.54mm_Horizontal" H 725 6100 50  0001 C CNN
F 3 "~" H 725 6100 50  0001 C CNN
F 4 "JILN" H 725 6100 50  0001 C CNN "Manufacturer"
F 5 "12251120CNG0S115005" H 725 6100 50  0001 C CNN "Part N."
	1    725  6100
	1    0    0    -1  
$EndComp
Wire Wire Line
	925  6300 1275 6300
Wire Wire Line
	925  6400 1275 6400
Text Label 3450 5875 0    39   ~ 0
AIN2
Text Label 3450 5975 0    39   ~ 0
AIN3
$Comp
L Device:R R9
U 1 1 5FBC4223
P 3425 6125
F 0 "R9" H 3355 6079 50  0000 R CNN
F 1 "10k" H 3355 6170 50  0000 R CNN
F 2 "HAMSatTracker:R_1206_3216Metric_Pad1.42x1.75mm_HandSolder" V 3355 6125 50  0001 C CNN
F 3 "~" H 3425 6125 50  0001 C CNN
F 4 " UNI-ROYAL(Uniroyal Elec)" H 3425 6125 50  0001 C CNN "Manufacturer"
F 5 "1206W4F1002T5E" H 3425 6125 50  0001 C CNN "Part N."
	1    3425 6125
	-1   0    0    1   
$EndComp
$Comp
L Device:R R8
U 1 1 5FBC4D28
P 3150 6125
F 0 "R8" H 3080 6079 50  0000 R CNN
F 1 "10k" H 3080 6170 50  0000 R CNN
F 2 "HAMSatTracker:R_1206_3216Metric_Pad1.42x1.75mm_HandSolder" V 3080 6125 50  0001 C CNN
F 3 "~" H 3150 6125 50  0001 C CNN
F 4 " UNI-ROYAL(Uniroyal Elec)" H 3150 6125 50  0001 C CNN "Manufacturer"
F 5 "1206W4F1002T5E" H 3150 6125 50  0001 C CNN "Part N."
	1    3150 6125
	-1   0    0    1   
$EndComp
Wire Wire Line
	3050 5775 3050 5975
Wire Wire Line
	3050 5775 3675 5775
Wire Wire Line
	3150 5875 3150 5975
Wire Wire Line
	3150 5875 3675 5875
Wire Wire Line
	3425 5975 3675 5975
Wire Wire Line
	3150 6275 3300 6275
Connection ~ 3300 6275
Wire Wire Line
	3300 6275 3425 6275
Text Label 1275 6300 2    39   ~ 0
AIN2
Text Label 1275 6400 2    39   ~ 0
AIN3
Text Label 4925 5575 2    39   ~ 0
GPIO_7-ALERT
Wire Wire Line
	4075 6275 4475 6275
Wire Wire Line
	4475 5975 4475 6275
Connection ~ 4475 6275
Wire Wire Line
	4850 6100 5025 6100
Wire Wire Line
	5325 6100 5525 6100
Text Label 4625 5875 2    39   ~ 0
SDA
Text Label 4625 5775 2    39   ~ 0
SCL
Text Notes 4700 4700 0    39   ~ 0
NOTE: Populate R8 and R9 if AIN2 and AIN3 not used
$Comp
L power:+BATT #PWR0101
U 1 1 5FCB4FD0
P 2850 1075
F 0 "#PWR0101" H 2850 925 50  0001 C CNN
F 1 "+BATT" H 2865 1248 50  0000 C CNN
F 2 "" H 2850 1075 50  0001 C CNN
F 3 "" H 2850 1075 50  0001 C CNN
	1    2850 1075
	1    0    0    -1  
$EndComp
$Comp
L power:PWR_FLAG #FLG0101
U 1 1 5FE30CDC
P 2100 975
F 0 "#FLG0101" H 2100 1050 50  0001 C CNN
F 1 "PWR_FLAG" H 2100 1148 50  0001 C CNN
F 2 "" H 2100 975 50  0001 C CNN
F 3 "~" H 2100 975 50  0001 C CNN
	1    2100 975 
	0    1    1    0   
$EndComp
Connection ~ 2100 975 
Wire Wire Line
	1125 975  1475 975 
$Comp
L power:PWR_FLAG #FLG0102
U 1 1 5FE3F598
P 1675 1625
F 0 "#FLG0102" H 1675 1700 50  0001 C CNN
F 1 "PWR_FLAG" H 1675 1798 50  0001 C CNN
F 2 "" H 1675 1625 50  0001 C CNN
F 3 "~" H 1675 1625 50  0001 C CNN
	1    1675 1625
	0    1    1    0   
$EndComp
Connection ~ 1675 1625
$Comp
L power:PWR_FLAG #FLG0103
U 1 1 5FE40B6B
P 3250 1075
F 0 "#FLG0103" H 3250 1150 50  0001 C CNN
F 1 "PWR_FLAG" H 3250 1248 50  0001 C CNN
F 2 "" H 3250 1075 50  0001 C CNN
F 3 "~" H 3250 1075 50  0001 C CNN
	1    3250 1075
	1    0    0    -1  
$EndComp
$Comp
L power:PWR_FLAG #FLG0104
U 1 1 5FE49EE5
P 1875 2300
F 0 "#FLG0104" H 1875 2375 50  0001 C CNN
F 1 "PWR_FLAG" H 1875 2473 50  0001 C CNN
F 2 "" H 1875 2300 50  0001 C CNN
F 3 "~" H 1875 2300 50  0001 C CNN
	1    1875 2300
	1    0    0    -1  
$EndComp
$Comp
L power:PWR_FLAG #FLG0105
U 1 1 5FE8647D
P 4075 5025
F 0 "#FLG0105" H 4075 5100 50  0001 C CNN
F 1 "PWR_FLAG" H 4075 5198 50  0001 C CNN
F 2 "" H 4075 5025 50  0001 C CNN
F 3 "~" H 4075 5025 50  0001 C CNN
	1    4075 5025
	1    0    0    -1  
$EndComp
$Comp
L power:PWR_FLAG #FLG0106
U 1 1 5FE89C25
P 4075 6275
F 0 "#FLG0106" H 4075 6350 50  0001 C CNN
F 1 "PWR_FLAG" H 4075 6448 50  0001 C CNN
F 2 "" H 4075 6275 50  0001 C CNN
F 3 "~" H 4075 6275 50  0001 C CNN
	1    4075 6275
	-1   0    0    1   
$EndComp
Connection ~ 4075 6275
Wire Wire Line
	2825 5975 3050 5975
Connection ~ 2825 5975
Text Label 3825 5025 0    39   ~ 0
+3.3V
Text Label 3300 6400 0    39   ~ 0
+3.3V
Wire Wire Line
	3300 6275 3300 6400
$Comp
L power:+3.3V #PWR06
U 1 1 601B0DAF
P 8125 1250
F 0 "#PWR06" H 8125 1100 50  0001 C CNN
F 1 "+3.3V" H 8140 1423 50  0000 C CNN
F 2 "" H 8125 1250 50  0001 C CNN
F 3 "" H 8125 1250 50  0001 C CNN
	1    8125 1250
	1    0    0    -1  
$EndComp
Connection ~ 8125 1250
Wire Wire Line
	8225 1250 8125 1250
$EndSCHEMATC
